id,name,model_id:id,group_id:id,perm_read,perm_write,perm_create,perm_unlink

access_product_summary_for_stn_view,stock.order.wise.product.summary,model_stock_order_wise_product_summary,group_product_summary_for_stn_view,1,1,1,0
access_product_summary_for_stn_report,product.summary.for.stn.report.wizard,model_product_summary_for_stn_report_wizard,group_product_summary_for_stn_report,1,1,1,0
