id,name,model_id:id,group_id:id,perm_read,perm_write,perm_create,perm_unlink
access_so_cancel_confirmed_order_user,so.cancel.confirmed.order,model_so_cancel_confirmed_order,group_so_cancel_confirmed_order_user,1,1,1,0
access_cancel_account_invoice_reason_user,cancel.account.invoice.reason,model_cancel_account_invoice_reason,group_so_cancel_confirmed_order_user,1,1,1,0
access_cancel_packing_list_reason_user,cancel.packing.list.reason,model_cancel_packing_list_reason,group_so_cancel_confirmed_order_user,1,1,1,0
access_cancel_picking_list_reason_user,cancel.picking.list.reason,model_cancel_picking_list_reason,group_so_cancel_confirmed_order_user,1,1,1,0
access_stock_picking_cancel_transfer_user,stock.picking.cancel.transfer,model_stock_picking_cancel_transfer,group_so_cancel_confirmed_order_user,1,1,1,0
access_cancel_wms_manifest_outbound_reasons_user,cancel.wms.manifest.outbound.reasons,model_cancel_wms_manifest_outbound_reasons,group_so_cancel_confirmed_order_user,1,1,1,0
access_cancel_wms_manifest_reasons_user,cancel.wms.manifest.reasons,model_cancel_wms_manifest_reasons,group_so_cancel_confirmed_order_user,1,1,1,0
access_so_cancel_confirmed_order_manager,so.cancel.confirmed.order,model_so_cancel_confirmed_order,group_so_cancel_confirmed_order_manager,1,1,1,1
access_cancel_account_invoice_reason_manager,cancel.account.invoice.reason,model_cancel_account_invoice_reason,group_so_cancel_confirmed_order_manager,1,1,1,1
access_cancel_packing_list_reason_manager,cancel.packing.list.reason,model_cancel_packing_list_reason,group_so_cancel_confirmed_order_manager,1,1,1,1
access_cancel_picking_list_reason_manager,cancel.picking.list.reason,model_cancel_picking_list_reason,group_so_cancel_confirmed_order_manager,1,1,1,1
access_stock_picking_cancel_transfer_manager,stock.picking.cancel.transfer,model_stock_picking_cancel_transfer,group_so_cancel_confirmed_order_manager,1,1,1,1
access_cancel_wms_manifest_outbound_reasons_manager,cancel.wms.manifest.outbound.reasons,model_cancel_wms_manifest_outbound_reasons,group_so_cancel_confirmed_order_manager,1,1,1,1
access_cancel_wms_manifest_reasons_manager,cancel.wms.manifest.reasons,model_cancel_wms_manifest_reasons,group_so_cancel_confirmed_order_manager,1,1,1,1
