id,name,model_id:id,group_id:id,perm_read,perm_write,perm_create,perm_unlink
access_bulk_order_payment,bulk.order.payment,model_bulk_order_payment,group_bulk_order_payment,1,1,1,0
access_bulk_order_payment_line,bulk.order.payment.line,model_bulk_order_payment_line,group_bulk_order_payment,1,1,1,0
access_bulk_payment_data_load,bulk.payment.data.load,model_bulk_payment_data_load,group_bulk_order_payment,1,1,1,0
access_bulk_payment_data_load_line,bulk.payment.data.load.line,model_bulk_payment_data_load_line,group_bulk_order_payment,1,1,1,0